Agenda :

Cloud Computing :
    - AWS :
        - Compute :
            - EC2 :
                - Linux Distributions :
                https://en.wikipedia.org/wiki/List_of_Linux_distributions
                https://en.wikipedia.org/wiki/Comparison_of_Linux_distributions

Package Management : Download, Install & Configure a software : git 

wget <url>
curl <url>

# Install software manually:
# rpm -ivh <git-2.30.5-86x.rpm> 

# Install software from internet/remotely:
# yum install git* 
                Redhat :
                    - RHEL
                    - Fedora
                    - CentOS
                Oracle Linux 
                Amazonn Linux 

Package Management : Download, Install & Configure a software : git 
                Debian/Ubuntu Linux :
                # apt or # apt-get 
                # apt update        or  # apt-get update 
                # apt install git*      # apt-get install git*  
                
                - Windows Different Versions :
                - MacOS :

DevOps :
    - OS Administration :
        - Linux 
        - Windows 

Q?

